{
  "database": {
    "server": "cmasterdata.database.windows.net",
    "port": "1433",
    "database": "cmdata",
    "user": "cm-user",
    "password": "23wYD8TPRhSVBggd",
    "driver": "ODBC Driver 17 for SQL Server"
  },
  "login": {
     "username": "NightlyData",
     "password": "kO947vPtD7S8gLbIK8Ru"
  },
  "files": {
    "directory": "",
    "file_name": "cmbackup",
    "csv_directory": "D:\\Projects\\AzureSQLImportPython\\test_csv",
    "temp_directory": "",
    "archive_directory": "",
    "download_directory": "D:\\Projects\\AzureSQLImportPython\\test_csv"
  },
  "log": {
    "log_directory": "",
    "log_file": "log.log"
  },
  "config": {
    "files": {
      "upload_tracker_directory": "",
      "upload_tracker_file_name": "upload_tracker.json",
      "row_count_file_directory": "",
      "row_count_file_name": "row_count.json",
      "table_upload_status_file_name": "table_upload_status.json",
      "table_upload_status_directory": "",
      "failed_rows_json_directory": "",
      "failed_rows_json_file_name": "failed_rows.json",
      "lock_files_directory": "",
      "lock_file_name": "process.lock"
    }
  }
}